…
Pivot table

Pivot table in the dplyr way

dent_oecd %>% 
  group_by(Country, Year) %>% 
  summarise(average = mean(Value)) %>% 
  spread(Year, average)

## # A tibble: 36 x 10
## # Groups:   Country [36]
##    Country   `2008` `2009` `2010` `2011` `2012` `2013` `2014` `2015` `2016`
##    <chr>      <dbl>  <dbl>  <dbl>  <dbl>  <dbl>  <dbl>  <dbl>  <dbl>  <dbl>
##  1 Australia   2.6    2.91   3.02   3.06   3.18   3.87   3.67   4.02  NA   
##  2 Austria     1.42   1.61   1.57   1.5    1.28   1.25   1.65  NA     NA   
##  3 Belgium     1.14   1.44   1.57   1.32   1.46   1.62   1.95   2.05   2.09
##  4 Canada      1.53   1.52   1.47   1.48   1.3    1.51  NA     NA     NA   
##  5 Chile       2.98   4.32   4.11   4.82   5.57   5.86   6.35   7.5    7.17
##  6 Czech Re…   1.59   3.9    3.37   2.86   2.49   3.15   3.26   3.75  NA   
##  7 Denmark     4.28   3.2    3.37   3.41   2.92   2.8    2.73  NA     NA   
##  8 Estonia     3.07   2.17   2.4    2.34   1.74   2.12   1.9    2.13  NA   
##  9 Finland     1.34   1.35   2.44   2.56   3.27   2.87   2.38  NA     NA   
## 10 France      1.36   1.33   1.49   1.72   1.57   1.66   1.48   1.88  NA   
## # … with 26 more rows
…
