…
flights %>%
  count(long_flight = air_time >= 6 * 60)

## # A tibble: 3 x 2
##   long_flight      n
##   <lgl>        <int>
## 1 FALSE       322630
## 2 TRUE          4716
## 3 NA            9430

flights %>%
  count(flight_path = str_c(origin, " -> ", dest), sort = TRUE)

## # A tibble: 224 x 2
##    flight_path     n
##    <chr>       <int>
##  1 JFK -> LAX  11262
##  2 LGA -> ATL  10263
##  3 LGA -> ORD   8857
##  4 JFK -> SFO   8204
##  5 LGA -> CLT   6168
##  6 EWR -> ORD   6100
##  7 JFK -> BOS   5898
##  8 LGA -> MIA   5781
##  9 JFK -> MCO   5464
## 10 EWR -> BOS   5327
## # … with 214 more rows

flights %>%
  group_by(date = make_date(year, month, day)) %>%
  summarise(flights_n = n(), air_time_median = median(air_time, na.rm = TRUE)) %>%
  ungroup()

## `summarise()` ungrouping output (override with `.groups` argument)

## # A tibble: 365 x 3
##    date       flights_n air_time_median
##    <date>         <int>           <dbl>
##  1 2013-01-01       842            149 
##  2 2013-01-02       943            148 
##  3 2013-01-03       914            148 
##  4 2013-01-04       915            140 
##  5 2013-01-05       720            147 
##  6 2013-01-06       832            147 
##  7 2013-01-07       933            126.
##  8 2013-01-08       899            126.
##  9 2013-01-09       902            135 
## 10 2013-01-10       932            126 
## # … with 355 more rows
…
