Visualizing caries trend at age 12 from OECD dataset
…
dentists %>% 
  filter(Variable == "Dentists graduates",  Measure == "Per 100 000 population") %>%
  group_by(Country, Year) %>% 
  summarise(n = n()) %>% 
  spread(Year, n)

## # A tibble: 36 x 10
## # Groups:   Country [36]
##    Country  `2008` `2009` `2010` `2011` `2012` `2013` `2014` `2015` `2016`
##    <chr>     <int>  <int>  <int>  <int>  <int>  <int>  <int>  <int>  <int>
##  1 Austral~      1      1      1      1      1      1      1      1     NA
##  2 Austria       1      1      1      1      1      1      1     NA     NA
##  3 Belgium       1      1      1      1      1      1      1      1      1
##  4 Canada        1      1      1      1      1      1     NA     NA     NA
##  5 Chile         1      1      1      1      1      1      1      1      1
##  6 Czech R~      1      1      1      1      1      1      1      1     NA
##  7 Denmark       1      1      1      1      1      1      1     NA     NA
##  8 Estonia       1      1      1      1      1      1      1      1     NA
##  9 Finland       1      1      1      1      1      1      1     NA     NA
## 10 France        1      1      1      1      1      1      1      1     NA
## # ... with 26 more rows
…
inner_join(df, dentists, by = "Country")

## # A tibble: 646 x 15
##    Country  DMFT_12_2006 DentistsPer1000h CODE   Value.x VAR   Variable   
##    <chr>           <dbl>            <dbl> <chr>    <dbl> <chr> <chr>      
##  1 Austral~         1.10            0.490 AUS   3023279. HEDU~ Dentists g~
##  2 Austral~         1.10            0.490 AUS   3023279. HEDU~ Dentists g~
##  3 Austral~         1.10            0.490 AUS   3023279. HEDU~ Dentists g~
##  4 Austral~         1.10            0.490 AUS   3023279. HEDU~ Dentists g~
##  5 Austral~         1.10            0.490 AUS   3023279. HEDU~ Dentists g~
##  6 Austral~         1.10            0.490 AUS   3023279. HEDU~ Dentists g~
##  7 Austral~         1.10            0.490 AUS   3023279. HEDU~ Dentists g~
##  8 Austral~         1.10            0.490 AUS   3023279. HEDU~ Dentists g~
##  9 Austral~         1.10            0.490 AUS   3023279. DNST~ Practising~
## 10 Austral~         1.10            0.490 AUS   3023279. DNST~ Practising~
## # ... with 636 more rows, and 8 more variables: UNIT <chr>, Measure <chr>,
## #   COU <chr>, YEA <int>, Year <int>, Value.y <dbl>, `Flag Codes` <chr>,
## #   Flags <chr>
…
table(dentists$Variable)

## 
##  Dentists graduates Practising dentists 
##                 570                 386

dentists %>%
  filter(Variable == "Dentists graduates") %>% 
  group_by(Year, Country) %>% 
  summarise(n = sum(Value)) %>% 
  spread(Year, n)

## # A tibble: 36 x 10
##    Country  `2008` `2009` `2010` `2011` `2012` `2013` `2014` `2015` `2016`
##    <chr>     <dbl>  <dbl>  <dbl>  <dbl>  <dbl>  <dbl>  <dbl>  <dbl>  <dbl>
##  1 Austral~  555.   635.   668.   687.   726.   898.   865.   961.     NA 
##  2 Austria   119.   136.   133.   128.   109.   107.   143.    NA      NA 
##  3 Belgium   123.   157.   173.   147.   164.   183.   221.   233.    238.
##  4 Canada    511.   513.   502.   509.   453.   534.    NA     NA      NA 
##  5 Chile     501.   733.   705.   836.   978.  1040.  1137.  1358.   1311.
##  6 Czech R~  167.   411.   356.   303.   264.   334.   346.   399.     NA 
##  7 Denmark   239.   180.   190.   193.   166.   160.   157.    NA      NA 
##  8 Estonia    44.1   31.2   34.4   33.3   24.7   30.1   26.9   30.1    NA 
##  9 Finland    72.3   73.4  133.   141.   180.   159.   132.    NA      NA 
## 10 France    877.   860.   967.  1120.  1029.  1092.   982.  1255.     NA 
## # ... with 26 more rows
…
